0,3,1,0,
0,5,1,0,
0,7,1,0,
1,0,1,0,
3,0,0,0,
2,3,1,0,
2,5,1,0,
3,4,1,1,
4,1,0,0,
5,0,1,0,
0,0,3,0,
0,0,3,0,
0,0,3,0,
0,0,3,0,
0,0,3,0,
0,0,3,0,
0,0,3,0,
0,0,3,0,
0,0,3,0,
0,0,3,0,
0,0,3,0,
0,0,3,0,
0,0,3,0,
0,0,3,0,
