0,1,1,0,0,
0,5,1,0,0,
0,7,1,0,0,
1,0,1,0,0,
1,2,1,0,0,
1,4,1,0,0,
2,1,1,0,0,
2,3,1,0,0,
2,7,1,0,0,
4,3,0,0,0,
5,0,0,0,0,
6,7,0,0,0,
7,0,0,0,0,
5,4,1,1,0,
7,4,0,0,0,
7,6,0,0,0,
0,0,3,0,0,
0,0,3,0,0,
0,0,3,0,0,
0,0,3,0,0,
0,0,3,0,0,
0,0,3,0,0,
0,0,3,0,0,
0,0,3,0,0,
